<?xml version="1.0" encoding="utf-8"?>
<!-- Generator: Adobe Illustrator 16.2.1, SVG Export Plug-In . SVG Version: 6.00 Build 0)  -->
<!DOCTYPE svg PUBLIC "-//W3C//DTD SVG 1.1//EN" "http://www.w3.org/Graphics/SVG/1.1/DTD/svg11.dtd">
<svg version="1.1" xmlns="http://www.w3.org/2000/svg" xmlns:xlink="http://www.w3.org/1999/xlink" x="0px" y="0px" width="50px"
	 height="50px" viewBox="0 0 50 50" enable-background="new 0 0 50 50" xml:space="preserve">
<g id="Layer_2" display="none">
	
		<image display="inline" overflow="visible" width="50" height="50" xlink:href="data:image/png;base64,iVBORw0KGgoAAAANSUhEUgAAADIAAAAyCAMAAAAp4XiDAAAAGXRFWHRTb2Z0d2FyZQBBZG9iZSBJ
bWFnZVJlYWR5ccllPAAAAC1QTFRFAAAA////7+/vEBAQr6+vICAgcHBwQEBAn5+fz8/Pv7+/UFBQ
MDAwgICA39/fozip9QAAANtJREFUeNrM1lsSgyAMBdAkBFCU7n+5UosOPtpy8yXfnOGRkED01OFw
EFESKaAkk6JESVAixBMmJiYGd6aFsEeE5zcZEDKsBFmmLLKS1E9SJdwdzsAbkblPzLITlq7kdKuo
hMcO40ZuSYfZxE7+nudzjgNh+XlvYRcNKfH5GlOfmmktKblzi/xwmHQkzHp5C5OeppxJOZPmWK/P
xaxymXBHAkbgjcHHhy8ZD+ULThg8LfHkx5+Y4SHj5cJQlPDSZyiweBk3NAu8JRkan6G9ZryJG74K
hg/JU8ciwAA4TgUXkCoRUAAAAABJRU5ErkJggg==">
	</image>
</g>
<g id="Layer_1">
	<g>
		<defs>
			<rect id="SVGID_1_" x="-136" y="84" width="50" height="50"/>
		</defs>
		<clipPath id="SVGID_2_">
			<use xlink:href="#SVGID_1_"  overflow="visible"/>
		</clipPath>
		<circle clip-path="url(#SVGID_2_)" cx="-111" cy="134" r="25"/>
		<circle clip-path="url(#SVGID_2_)" cx="-111" cy="84" r="25"/>
	</g>
	<path d="M56-40H6c0,13.807,11.193,25,25,25S56-26.193,56-40z"/>
	<text transform="matrix(1 0 0 1 -119.833 74.8335)" font-family="'MyriadPro-Regular'" font-size="12">4d</text>
	<text transform="matrix(1 0 0 1 18.8335 76.167)" font-family="'MyriadPro-Regular'" font-size="12">1b</text>
	<text transform="matrix(1 0 0 1 76.834 76.167)" font-family="'MyriadPro-Regular'" font-size="12">1d</text>
	<text transform="matrix(1 0 0 1 142.334 76.167)" font-family="'MyriadPro-Regular'" font-size="12">1i</text>
	<text transform="matrix(1 0 0 1 209.834 76.167)" font-family="'MyriadPro-Regular'" font-size="12">1r</text>
	<text transform="matrix(1 0 0 1 279.334 76.167)" font-family="'MyriadPro-Regular'" font-size="12">1y</text>
	<text transform="matrix(1 0 0 1 340.834 76.167)" font-family="'MyriadPro-Regular'" font-size="12">1z</text>
	<rect x="125" y="84" width="50" height="50"/>
	<path fill="#FFFFFF" d="M175.001,109h-49.999c0,14,11.193,25,25,25S175.001,123,175.001,109z"/>
	<path fill="#FFFFFF" d="M175.002,84h-50c0,14,11.193,25,25,25S175.002,98,175.002,84z"/>
	<rect fill="#FFFFFF" width="50" height="50"/>
	<path d="M0,50h50c0-14-11.193-25-25-25S0,36,0,50z"/>
	<rect x="322" y="84" width="50" height="50"/>
	<path fill="#FFFFFF" d="M347,84.001V134c14,0,25-11.193,25-25S361,84.001,347,84.001z"/>
	<path fill="#FFFFFF" d="M322,84v50c14,0,25-11.193,25-25S336,84,322,84z"/>
	<rect x="258" y="84" width="50" height="50"/>
	<path fill="#FFFFFF" d="M283,134V84.001c-14,0-25,11.193-25,25S269,134,283,134z"/>
	<path fill="#FFFFFF" d="M308,134.001v-50c-14,0-25,11.193-25,25S294,134.001,308,134.001z"/>
	<rect x="58" y="84" width="50" height="50"/>
	<path fill="#FFFFFF" d="M58,134h50c0-13.807-11.193-25-25-25S58,120.193,58,134z"/>
	<path fill="#FFFFFF" d="M108.002,84h-50c0,14,11.193,25,25,25S108.002,98,108.002,84z"/>
	<rect x="190" y="84" width="50" height="50"/>
	<path fill="#FFFFFF" d="M190,83.999v50c14,0,25-11.193,25-25S204,83.999,190,83.999z"/>
	<path fill="#FFFFFF" d="M240,134.001v-50c-14,0-25,11.193-25,25S226,134.001,240,134.001z"/>
	<rect y="84" width="50" height="50"/>
	<path fill="#FFFFFF" d="M0,134h50c0-13.807-11.193-25-25-25S0,120.193,0,134z"/>
	<path fill="#FFFFFF" d="M0,109h50c0-13.807-11.193-25-25-25S0,95.193,0,109z"/>
</g>
</svg>
